EEPROM_test/simulation/qsim/EEPROM_test.msim.vcd
$comment
	File created using the following command:
		vcd file EEPROM_test.msim.vcd -direction
$end
$date
	Wed Feb 22 17:05:22 2023
$end
$version
	ModelSim Version 10.5b
$end
$timescale
	1ps
$end

$scope module EEPROM_test_vlg_vec_tst $end
$var reg 1 ! clk $end
$var reg 1 " treg_i2c_sda $end
$var reg 1 # rst_n $end
$var wire 1 $ i2c_scl $end
$var wire 1 % i2c_sda $end
$var wire 1 & seg_1 [8] $end
$var wire 1 ' seg_1 [7] $end
$var wire 1 ( seg_1 [6] $end
$var wire 1 ) seg_1 [5] $end
$var wire 1 * seg_1 [4] $end
$var wire 1 + seg_1 [3] $end
$var wire 1 , seg_1 [2] $end
$var wire 1 - seg_1 [1] $end
$var wire 1 . seg_1 [0] $end
$var wire 1 / seg_2 [8] $end
$var wire 1 0 seg_2 [7] $end
$var wire 1 1 seg_2 [6] $end
$var wire 1 2 seg_2 [5] $end
$var wire 1 3 seg_2 [4] $end
$var wire 1 4 seg_2 [3] $end
$var wire 1 5 seg_2 [2] $end
$var wire 1 6 seg_2 [1] $end
$var wire 1 7 seg_2 [0] $end

$scope module i1 $end
$var wire 1 8 gnd $end
$var wire 1 9 vcc $end
$var wire 1 : unknown $end
$var tri1 1 ; devclrn $end
$var tri1 1 < devpor $end
$var tri1 1 = devoe $end
$var wire 1 > ~QUARTUS_CREATED_UNVM~~busy $end
$var wire 1 ? ~QUARTUS_CREATED_ADC1~~eoc $end
$var wire 1 @ i2c_sda~output_o $end
$var wire 1 A i2c_scl~output_o $end
$var wire 1 B seg_1[0]~output_o $end
$var wire 1 C seg_1[1]~output_o $end
$var wire 1 D seg_1[2]~output_o $end
$var wire 1 E seg_1[3]~output_o $end
$var wire 1 F seg_1[4]~output_o $end
$var wire 1 G seg_1[5]~output_o $end
$var wire 1 H seg_1[6]~output_o $end
$var wire 1 I seg_1[7]~output_o $end
$var wire 1 J seg_1[8]~output_o $end
$var wire 1 K seg_2[0]~output_o $end
$var wire 1 L seg_2[1]~output_o $end
$var wire 1 M seg_2[2]~output_o $end
$var wire 1 N seg_2[3]~output_o $end
$var wire 1 O seg_2[4]~output_o $end
$var wire 1 P seg_2[5]~output_o $end
$var wire 1 Q seg_2[6]~output_o $end
$var wire 1 R seg_2[7]~output_o $end
$var wire 1 S seg_2[8]~output_o $end
$var wire 1 T clk~input_o $end
$var wire 1 U clk~inputclkctrl_outclk $end
$var wire 1 V u1|cnt_400khz[0]~10_combout $end
$var wire 1 W rst_n~input_o $end
$var wire 1 X u1|LessThan0~0_combout $end
$var wire 1 Y u1|LessThan0~1_combout $end
$var wire 1 Z u1|LessThan0~2_combout $end
$var wire 1 [ u1|cnt_400khz[0]~11 $end
$var wire 1 \ u1|cnt_400khz[1]~12_combout $end
$var wire 1 ] u1|cnt_400khz[1]~13 $end
$var wire 1 ^ u1|cnt_400khz[2]~14_combout $end
$var wire 1 _ u1|cnt_400khz[2]~15 $end
$var wire 1 ` u1|cnt_400khz[3]~16_combout $end
$var wire 1 a u1|cnt_400khz[3]~17 $end
$var wire 1 b u1|cnt_400khz[4]~18_combout $end
$var wire 1 c u1|cnt_400khz[4]~19 $end
$var wire 1 d u1|cnt_400khz[5]~20_combout $end
$var wire 1 e u1|cnt_400khz[5]~21 $end
$var wire 1 f u1|cnt_400khz[6]~22_combout $end
$var wire 1 g u1|cnt_400khz[6]~23 $end
$var wire 1 h u1|cnt_400khz[7]~24_combout $end
$var wire 1 i u1|cnt_400khz[7]~25 $end
$var wire 1 j u1|cnt_400khz[8]~26_combout $end
$var wire 1 k u1|cnt_400khz[8]~27 $end
$var wire 1 l u1|cnt_400khz[9]~28_combout $end
$var wire 1 m u1|clk_400khz~0_combout $end
$var wire 1 n u1|clk_400khz~feeder_combout $end
$var wire 1 o u1|clk_400khz~q $end
$var wire 1 p u1|clk_400khz~clkctrl_outclk $end
$var wire 1 q u1|cnt_mode1~3_combout $end
$var wire 1 r u1|cnt_mode1[1]~1_combout $end
$var wire 1 s u1|cnt_mode1~2_combout $end
$var wire 1 t u1|cnt_mode1~0_combout $end
$var wire 1 u u1|Selector94~0_combout $end
$var wire 1 v u1|Selector27~0_combout $end
$var wire 1 w u1|Selector96~13_combout $end
$var wire 1 x u1|cnt_mode2~3_combout $end
$var wire 1 y u1|cnt_mode2[3]~0_combout $end
$var wire 1 z u1|cnt_mode2~1_combout $end
$var wire 1 { u1|cnt_mode2~2_combout $end
$var wire 1 | u1|Selector96~0_combout $end
$var wire 1 } i2c_sda~input_o $end
$var wire 1 ~ u1|Selector36~3_combout $end
$var wire 1 !! u1|LessThan7~0_combout $end
$var wire 1 "! u1|Selector36~2_combout $end
$var wire 1 #! u1|Selector34~0_combout $end
$var wire 1 $! u1|Selector24~0_combout $end
$var wire 1 %! u1|Selector40~2_combout $end
$var wire 1 &! u1|Selector38~0_combout $end
$var wire 1 '! u1|cnt[2]~1_combout $end
$var wire 1 (! u1|Selector39~0_combout $end
$var wire 1 )! u1|LessThan9~0_combout $end
$var wire 1 *! u1|Selector40~3_combout $end
$var wire 1 +! u1|Selector40~4_combout $end
$var wire 1 ,! u1|Selector40~5_combout $end
$var wire 1 -! u1|Selector96~7_combout $end
$var wire 1 .! u1|Selector99~0_combout $end
$var wire 1 /! u1|Selector99~1_combout $end
$var wire 1 0! u1|state.READ~q $end
$var wire 1 1! u1|cnt[2]~2_combout $end
$var wire 1 2! u1|Selector23~0_combout $end
$var wire 1 3! u1|Selector22~0_combout $end
$var wire 1 4! u1|LessThan5~0_combout $end
$var wire 1 5! u1|cnt[2]~0_combout $end
$var wire 1 6! u1|Selector35~0_combout $end
$var wire 1 7! u1|Decoder6~0_combout $end
$var wire 1 8! u1|ack_flag~0_combout $end
$var wire 1 9! u1|Selector20~0_combout $end
$var wire 1 :! u1|ack_flag~q $end
$var wire 1 ;! u1|Selector93~0_combout $end
$var wire 1 <! u1|Selector96~1_combout $end
$var wire 1 =! u1|Selector82~0_combout $end
$var wire 1 >! u1|Add10~0_combout $end
$var wire 1 ?! u1|Add10~72_combout $end
$var wire 1 @! u1|Add10~49_combout $end
$var wire 1 A! u1|Add10~1 $end
$var wire 1 B! u1|Add10~2_combout $end
$var wire 1 C! u1|Add10~71_combout $end
$var wire 1 D! u1|Add10~3 $end
$var wire 1 E! u1|Add10~4_combout $end
$var wire 1 F! u1|Add10~70_combout $end
$var wire 1 G! u1|Add10~5 $end
$var wire 1 H! u1|Add10~6_combout $end
$var wire 1 I! u1|Add10~69_combout $end
$var wire 1 J! u1|Add10~7 $end
$var wire 1 K! u1|Add10~8_combout $end
$var wire 1 L! u1|Add10~61_combout $end
$var wire 1 M! u1|Add10~9 $end
$var wire 1 N! u1|Add10~10_combout $end
$var wire 1 O! u1|Add10~60_combout $end
$var wire 1 P! u1|Add10~11 $end
$var wire 1 Q! u1|Add10~12_combout $end
$var wire 1 R! u1|Add10~63_combout $end
$var wire 1 S! u1|Add10~13 $end
$var wire 1 T! u1|Add10~14_combout $end
$var wire 1 U! u1|Add10~59_combout $end
$var wire 1 V! u1|Add10~15 $end
$var wire 1 W! u1|Add10~16_combout $end
$var wire 1 X! u1|Add10~58_combout $end
$var wire 1 Y! u1|Add10~17 $end
$var wire 1 Z! u1|Add10~18_combout $end
$var wire 1 [! u1|Add10~57_combout $end
$var wire 1 \! u1|Add10~19 $end
$var wire 1 ]! u1|Add10~20_combout $end
$var wire 1 ^! u1|Add10~62_combout $end
$var wire 1 _! u1|LessThan12~3_combout $end
$var wire 1 `! u1|LessThan12~4_combout $end
$var wire 1 a! u1|LessThan12~5_combout $end
$var wire 1 b! u1|Add10~21 $end
$var wire 1 c! u1|Add10~22_combout $end
$var wire 1 d! u1|Add10~67_combout $end
$var wire 1 e! u1|Add10~23 $end
$var wire 1 f! u1|Add10~24_combout $end
$var wire 1 g! u1|Add10~66_combout $end
$var wire 1 h! u1|Add10~25 $end
$var wire 1 i! u1|Add10~26_combout $end
$var wire 1 j! u1|Add10~65_combout $end
$var wire 1 k! u1|Add10~27 $end
$var wire 1 l! u1|Add10~29 $end
$var wire 1 m! u1|Add10~30_combout $end
$var wire 1 n! u1|Add10~64_combout $end
$var wire 1 o! u1|num_delay[11]~0_combout $end
$var wire 1 p! u1|LessThan12~8_combout $end
$var wire 1 q! u1|LessThan12~9_combout $end
$var wire 1 r! u1|LessThan12~11_combout $end
$var wire 1 s! u1|Add10~31 $end
$var wire 1 t! u1|Add10~32_combout $end
$var wire 1 u! u1|Add10~56_combout $end
$var wire 1 v! u1|Add10~33 $end
$var wire 1 w! u1|Add10~34_combout $end
$var wire 1 x! u1|Add10~55_combout $end
$var wire 1 y! u1|Add10~35 $end
$var wire 1 z! u1|Add10~36_combout $end
$var wire 1 {! u1|Add10~54_combout $end
$var wire 1 |! u1|Add10~37 $end
$var wire 1 }! u1|Add10~39 $end
$var wire 1 ~! u1|Add10~40_combout $end
$var wire 1 !" u1|Add10~52_combout $end
$var wire 1 "" u1|Add10~41 $end
$var wire 1 #" u1|Add10~42_combout $end
$var wire 1 $" u1|Add10~51_combout $end
$var wire 1 %" u1|Add10~43 $end
$var wire 1 &" u1|Add10~44_combout $end
$var wire 1 '" u1|Add10~50_combout $end
$var wire 1 (" u1|Add10~45 $end
$var wire 1 )" u1|Add10~46_combout $end
$var wire 1 *" u1|Add10~48_combout $end
$var wire 1 +" u1|LessThan12~0_combout $end
$var wire 1 ," u1|Add10~38_combout $end
$var wire 1 -" u1|Add10~53_combout $end
$var wire 1 ." u1|LessThan12~1_combout $end
$var wire 1 /" u1|Add10~28_combout $end
$var wire 1 0" u1|Add10~68_combout $end
$var wire 1 1" u1|LessThan12~6_combout $end
$var wire 1 2" u1|LessThan12~7_combout $end
$var wire 1 3" u1|LessThan12~2_combout $end
$var wire 1 4" u1|LessThan12~10_combout $end
$var wire 1 5" u1|Selector96~11_combout $end
$var wire 1 6" u1|Selector104~0_combout $end
$var wire 1 7" u1|state_back.MODE2~q $end
$var wire 1 8" u1|Selector96~8_combout $end
$var wire 1 9" u1|Selector96~9_combout $end
$var wire 1 :" u1|Selector44~3_combout $end
$var wire 1 ;" u1|Selector44~2_combout $end
$var wire 1 <" u1|Selector43~0_combout $end
$var wire 1 =" u1|Selector100~0_combout $end
$var wire 1 >" u1|Selector100~2_combout $end
$var wire 1 ?" u1|Selector100~1_combout $end
$var wire 1 @" u1|Selector97~0_combout $end
$var wire 1 A" u1|Selector100~3_combout $end
$var wire 1 B" u1|state.STOP~q $end
$var wire 1 C" u1|Selector42~2_combout $end
$var wire 1 D" u1|Selector42~3_combout $end
$var wire 1 E" u1|Selector97~2_combout $end
$var wire 1 F" u1|Selector97~3_combout $end
$var wire 1 G" u1|state.START~q $end
$var wire 1 H" u1|Selector32~0_combout $end
$var wire 1 I" u1|Selector97~1_combout $end
$var wire 1 J" u1|Selector31~0_combout $end
$var wire 1 K" u1|Selector31~1_combout $end
$var wire 1 L" u1|Selector30~0_combout $end
$var wire 1 M" u1|Selector30~1_combout $end
$var wire 1 N" u1|Selector96~4_combout $end
$var wire 1 O" u1|Selector96~2_combout $end
$var wire 1 P" u1|Selector96~5_combout $end
$var wire 1 Q" u1|Selector96~6_combout $end
$var wire 1 R" u1|Selector96~10_combout $end
$var wire 1 S" u1|Selector95~0_combout $end
$var wire 1 T" u1|Selector96~3_combout $end
$var wire 1 U" u1|Selector95~1_combout $end
$var wire 1 V" u1|Selector95~2_combout $end
$var wire 1 W" u1|Selector96~12_combout $end
$var wire 1 X" u1|Selector96~14_combout $end
$var wire 1 Y" u1|state.MODE2~q $end
$var wire 1 Z" u1|Selector102~0_combout $end
$var wire 1 [" u1|state_back.IDLE~q $end
$var wire 1 \" u1|Selector93~3_combout $end
$var wire 1 ]" u1|Selector93~4_combout $end
$var wire 1 ^" u1|Selector93~1_combout $end
$var wire 1 _" u1|Selector93~2_combout $end
$var wire 1 `" u1|Selector93~5_combout $end
$var wire 1 a" u1|Selector93~8_combout $end
$var wire 1 b" u1|Selector93~6_combout $end
$var wire 1 c" u1|Selector93~7_combout $end
$var wire 1 d" u1|Selector93~9_combout $end
$var wire 1 e" u1|Selector93~10_combout $end
$var wire 1 f" u1|state.IDLE~q $end
$var wire 1 g" u1|Selector28~0_combout $end
$var wire 1 h" u1|Decoder1~0_combout $end
$var wire 1 i" u1|Selector101~0_combout $end
$var wire 1 j" u1|state.DELAY~q $end
$var wire 1 k" u1|Selector94~1_combout $end
$var wire 1 l" u1|Selector94~2_combout $end
$var wire 1 m" u1|Selector94~3_combout $end
$var wire 1 n" u1|state.MAIN~q $end
$var wire 1 o" u1|data_wr[0]~0_combout $end
$var wire 1 p" u1|Selector103~0_combout $end
$var wire 1 q" u1|state_back.MODE1~q $end
$var wire 1 r" u1|Selector95~3_combout $end
$var wire 1 s" u1|Selector95~4_combout $end
$var wire 1 t" u1|state.MODE1~q $end
$var wire 1 u" u1|Selector98~0_combout $end
$var wire 1 v" u1|Selector111~0_combout $end
$var wire 1 w" u1|data_wr[0]~1_combout $end
$var wire 1 x" u1|Selector98~1_combout $end
$var wire 1 y" u1|state.WRITE~q $end
$var wire 1 z" u1|Add2~0_combout $end
$var wire 1 {" u1|data_wr[0]~2_combout $end
$var wire 1 |" u1|dev_addr[0]~0_combout $end
$var wire 1 }" u1|dev_addr[0]~1_combout $end
$var wire 1 ~" u1|Selector94~4_combout $end
$var wire 1 !# u1|Selector111~1_combout $end
$var wire 1 "# u1|Selector111~2_combout $end
$var wire 1 ## u1|Selector18~0_combout $end
$var wire 1 $# u1|Selector111~3_combout $end
$var wire 1 %# u1|Selector111~4_combout $end
$var wire 1 &# u1|Selector111~5_combout $end
$var wire 1 '# u1|Selector122~3_combout $end
$var wire 1 (# u1|Selector107~0_combout $end
$var wire 1 )# ~GND~combout $end
$var wire 1 *# u1|Selector122~4_combout $end
$var wire 1 +# u1|Selector122~5_combout $end
$var wire 1 ,# u1|Selector122~1_combout $end
$var wire 1 -# u1|Selector122~0_combout $end
$var wire 1 .# u1|Selector19~0_combout $end
$var wire 1 /# u1|Selector19~1_combout $end
$var wire 1 0# u1|Selector19~2_combout $end
$var wire 1 1# u1|ack~q $end
$var wire 1 2# u1|Selector122~2_combout $end
$var wire 1 3# u1|Selector122~6_combout $end
$var wire 1 4# u1|Selector119~1_combout $end
$var wire 1 5# u1|Selector119~0_combout $end
$var wire 1 6# u1|Selector119~2_combout $end
$var wire 1 7# u1|Selector119~3_combout $end
$var wire 1 8# u1|sda~q $end
$var wire 1 9# u1|Selector125~0_combout $end
$var wire 1 :# u1|sda~en_q $end
$var wire 1 ;# u1|Selector18~6_combout $end
$var wire 1 <# u1|Selector18~2_combout $end
$var wire 1 =# u1|Selector18~3_combout $end
$var wire 1 ># u1|Selector18~4_combout $end
$var wire 1 ?# u1|Selector18~5_combout $end
$var wire 1 @# u1|Selector18~1_combout $end
$var wire 1 A# u1|Selector18~7_combout $end
$var wire 1 B# u1|scl~q $end
$var wire 1 C# u1|Decoder7~0_combout $end
$var wire 1 D# u1|Decoder7~2_combout $end
$var wire 1 E# u1|data_r[6]~2_combout $end
$var wire 1 F# u1|seg_data[4]~0_combout $end
$var wire 1 G# u1|Decoder7~3_combout $end
$var wire 1 H# u1|data_r[7]~3_combout $end
$var wire 1 I# u1|seg_data[7]~feeder_combout $end
$var wire 1 J# u1|Decoder7~1_combout $end
$var wire 1 K# u1|data_r[4]~0_combout $end
$var wire 1 L# u1|data_r[5]~1_combout $end
$var wire 1 M# u1|seg_data[5]~feeder_combout $end
$var wire 1 N# u2|WideOr6~0_combout $end
$var wire 1 O# u2|WideOr5~0_combout $end
$var wire 1 P# u2|WideOr4~0_combout $end
$var wire 1 Q# u2|WideOr3~0_combout $end
$var wire 1 R# u2|WideOr2~0_combout $end
$var wire 1 S# u2|WideOr1~0_combout $end
$var wire 1 T# u2|WideOr0~0_combout $end
$var wire 1 U# u1|Decoder7~5_combout $end
$var wire 1 V# u1|data_r[2]~6_combout $end
$var wire 1 W# u1|seg_data[2]~feeder_combout $end
$var wire 1 X# u1|Decoder7~4_combout $end
$var wire 1 Y# u1|data_r[1]~5_combout $end
$var wire 1 Z# u1|seg_data[1]~feeder_combout $end
$var wire 1 [# u1|Decoder7~6_combout $end
$var wire 1 \# u1|data_r[3]~7_combout $end
$var wire 1 ]# u1|seg_data[3]~feeder_combout $end
$var wire 1 ^# u1|data_r[0]~4_combout $end
$var wire 1 _# u1|seg_data[0]~feeder_combout $end
$var wire 1 `# u3|WideOr6~0_combout $end
$var wire 1 a# u3|WideOr5~0_combout $end
$var wire 1 b# u3|WideOr4~0_combout $end
$var wire 1 c# u3|WideOr3~0_combout $end
$var wire 1 d# u3|WideOr2~0_combout $end
$var wire 1 e# u3|WideOr1~0_combout $end
$var wire 1 f# u3|WideOr0~0_combout $end
$var wire 1 g# u1|data_r [7] $end
$var wire 1 h# u1|data_r [6] $end
$var wire 1 i# u1|data_r [5] $end
$var wire 1 j# u1|data_r [4] $end
$var wire 1 k# u1|data_r [3] $end
$var wire 1 l# u1|data_r [2] $end
$var wire 1 m# u1|data_r [1] $end
$var wire 1 n# u1|data_r [0] $end
$var wire 1 o# u1|cnt_delay [23] $end
$var wire 1 p# u1|cnt_delay [22] $end
$var wire 1 q# u1|cnt_delay [21] $end
$var wire 1 r# u1|cnt_delay [20] $end
$var wire 1 s# u1|cnt_delay [19] $end
$var wire 1 t# u1|cnt_delay [18] $end
$var wire 1 u# u1|cnt_delay [17] $end
$var wire 1 v# u1|cnt_delay [16] $end
$var wire 1 w# u1|cnt_delay [15] $end
$var wire 1 x# u1|cnt_delay [14] $end
$var wire 1 y# u1|cnt_delay [13] $end
$var wire 1 z# u1|cnt_delay [12] $end
$var wire 1 {# u1|cnt_delay [11] $end
$var wire 1 |# u1|cnt_delay [10] $end
$var wire 1 }# u1|cnt_delay [9] $end
$var wire 1 ~# u1|cnt_delay [8] $end
$var wire 1 !$ u1|cnt_delay [7] $end
$var wire 1 "$ u1|cnt_delay [6] $end
$var wire 1 #$ u1|cnt_delay [5] $end
$var wire 1 $$ u1|cnt_delay [4] $end
$var wire 1 %$ u1|cnt_delay [3] $end
$var wire 1 &$ u1|cnt_delay [2] $end
$var wire 1 '$ u1|cnt_delay [1] $end
$var wire 1 ($ u1|cnt_delay [0] $end
$var wire 1 )$ u1|cnt_write [3] $end
$var wire 1 *$ u1|cnt_write [2] $end
$var wire 1 +$ u1|cnt_write [1] $end
$var wire 1 ,$ u1|cnt_write [0] $end
$var wire 1 -$ u1|cnt_400khz [9] $end
$var wire 1 .$ u1|cnt_400khz [8] $end
$var wire 1 /$ u1|cnt_400khz [7] $end
$var wire 1 0$ u1|cnt_400khz [6] $end
$var wire 1 1$ u1|cnt_400khz [5] $end
$var wire 1 2$ u1|cnt_400khz [4] $end
$var wire 1 3$ u1|cnt_400khz [3] $end
$var wire 1 4$ u1|cnt_400khz [2] $end
$var wire 1 5$ u1|cnt_400khz [1] $end
$var wire 1 6$ u1|cnt_400khz [0] $end
$var wire 1 7$ u1|data_wr [7] $end
$var wire 1 8$ u1|data_wr [6] $end
$var wire 1 9$ u1|data_wr [5] $end
$var wire 1 :$ u1|data_wr [4] $end
$var wire 1 ;$ u1|data_wr [3] $end
$var wire 1 <$ u1|data_wr [2] $end
$var wire 1 =$ u1|data_wr [1] $end
$var wire 1 >$ u1|data_wr [0] $end
$var wire 1 ?$ u1|cnt_read [3] $end
$var wire 1 @$ u1|cnt_read [2] $end
$var wire 1 A$ u1|cnt_read [1] $end
$var wire 1 B$ u1|cnt_read [0] $end
$var wire 1 C$ u1|seg_data [7] $end
$var wire 1 D$ u1|seg_data [6] $end
$var wire 1 E$ u1|seg_data [5] $end
$var wire 1 F$ u1|seg_data [4] $end
$var wire 1 G$ u1|seg_data [3] $end
$var wire 1 H$ u1|seg_data [2] $end
$var wire 1 I$ u1|seg_data [1] $end
$var wire 1 J$ u1|seg_data [0] $end
$var wire 1 K$ u1|cnt_stop [3] $end
$var wire 1 L$ u1|cnt_stop [2] $end
$var wire 1 M$ u1|cnt_stop [1] $end
$var wire 1 N$ u1|cnt_stop [0] $end
$var wire 1 O$ u1|cnt_start [3] $end
$var wire 1 P$ u1|cnt_start [2] $end
$var wire 1 Q$ u1|cnt_start [1] $end
$var wire 1 R$ u1|cnt_start [0] $end
$var wire 1 S$ u1|cnt_mode2 [3] $end
$var wire 1 T$ u1|cnt_mode2 [2] $end
$var wire 1 U$ u1|cnt_mode2 [1] $end
$var wire 1 V$ u1|cnt_mode2 [0] $end
$var wire 1 W$ u1|cnt_mode1 [3] $end
$var wire 1 X$ u1|cnt_mode1 [2] $end
$var wire 1 Y$ u1|cnt_mode1 [1] $end
$var wire 1 Z$ u1|cnt_mode1 [0] $end
$var wire 1 [$ u1|num_delay [23] $end
$var wire 1 \$ u1|num_delay [22] $end
$var wire 1 ]$ u1|num_delay [21] $end
$var wire 1 ^$ u1|num_delay [20] $end
$var wire 1 _$ u1|num_delay [19] $end
$var wire 1 `$ u1|num_delay [18] $end
$var wire 1 a$ u1|num_delay [17] $end
$var wire 1 b$ u1|num_delay [16] $end
$var wire 1 c$ u1|num_delay [15] $end
$var wire 1 d$ u1|num_delay [14] $end
$var wire 1 e$ u1|num_delay [13] $end
$var wire 1 f$ u1|num_delay [12] $end
$var wire 1 g$ u1|num_delay [11] $end
$var wire 1 h$ u1|num_delay [10] $end
$var wire 1 i$ u1|num_delay [9] $end
$var wire 1 j$ u1|num_delay [8] $end
$var wire 1 k$ u1|num_delay [7] $end
$var wire 1 l$ u1|num_delay [6] $end
$var wire 1 m$ u1|num_delay [5] $end
$var wire 1 n$ u1|num_delay [4] $end
$var wire 1 o$ u1|num_delay [3] $end
$var wire 1 p$ u1|num_delay [2] $end
$var wire 1 q$ u1|num_delay [1] $end
$var wire 1 r$ u1|num_delay [0] $end
$var wire 1 s$ u1|cnt_main [3] $end
$var wire 1 t$ u1|cnt_main [2] $end
$var wire 1 u$ u1|cnt_main [1] $end
$var wire 1 v$ u1|cnt_main [0] $end
$var wire 1 w$ u1|cnt [3] $end
$var wire 1 x$ u1|cnt [2] $end
$var wire 1 y$ u1|cnt [1] $end
$var wire 1 z$ u1|cnt [0] $end
$var wire 1 {$ u1|dev_addr [7] $end
$var wire 1 |$ u1|dev_addr [6] $end
$var wire 1 }$ u1|dev_addr [5] $end
$var wire 1 ~$ u1|dev_addr [4] $end
$var wire 1 !% u1|dev_addr [3] $end
$var wire 1 "% u1|dev_addr [2] $end
$var wire 1 #% u1|dev_addr [1] $end
$var wire 1 $% u1|dev_addr [0] $end
$upscope $end
$upscope $end
$enddefinitions $end
#0
$dumpvars
0!
z"
1#
1$
1%
1.
1-
1,
1+
1*
1)
0(
0'
0&
17
16
15
14
13
12
01
00
0/
08
19
x:
1;
1<
1=
z>
z?
1@
1A
1B
1C
1D
1E
1F
1G
0H
0I
0J
1K
1L
1M
1N
1O
1P
0Q
0R
0S
0T
0U
1V
1W
1X
1Y
0Z
0[
0\
1]
0^
0_
0`
1a
0b
0c
0d
1e
0f
0g
0h
1i
0j
0k
0l
0m
0n
0o
0p
0q
0r
0s
1t
0u
0v
0w
0x
0y
0z
1{
1|
1}
0~
1!!
0"!
0#!
0$!
0%!
0&!
0'!
0(!
0)!
0*!
0+!
0,!
0-!
0.!
0/!
00!
11!
02!
03!
04!
05!
06!
07!
08!
09!
0:!
0;!
1<!
0=!
1>!
1?!
1@!
0A!
0B!
0C!
1D!
0E!
0F!
0G!
0H!
0I!
1J!
0K!
0L!
0M!
0N!
0O!
1P!
0Q!
0R!
0S!
0T!
0U!
1V!
0W!
0X!
0Y!
0Z!
0[!
1\!
0]!
0^!
1_!
1`!
1a!
0b!
0c!
0d!
1e!
0f!
0g!
0h!
0i!
0j!
1k!
0l!
0m!
0n!
0o!
1p!
1q!
1r!
1s!
0t!
0u!
0v!
0w!
0x!
1y!
0z!
0{!
0|!
1}!
0~!
0!"
0""
0#"
0$"
1%"
0&"
0'"
0("
0)"
0*"
0+"
0,"
0-"
0."
0/"
00"
11"
12"
03"
04"
15"
06"
07"
08"
09"
0:"
0;"
0<"
0="
0>"
0?"
0@"
0A"
0B"
0C"
0D"
0E"
0F"
0G"
0H"
0I"
0J"
0K"
0L"
0M"
0N"
0O"
0P"
0Q"
0R"
0S"
0T"
0U"
0V"
0W"
0X"
0Y"
0Z"
0["
0\"
0]"
0^"
0_"
0`"
0a"
0b"
0c"
0d"
1e"
0f"
0g"
0h"
0i"
0j"
0k"
1l"
1m"
0n"
1o"
0p"
0q"
0r"
0s"
0t"
0u"
0v"
1w"
0x"
0y"
0z"
0{"
0|"
0}"
1~"
0!#
0"#
1##
1$#
1%#
0&#
0'#
0(#
0)#
0*#
0+#
0,#
1-#
0.#
0/#
00#
01#
12#
03#
04#
05#
06#
17#
08#
09#
0:#
0;#
1<#
1=#
0>#
1?#
1@#
0A#
0B#
0C#
0D#
0E#
0F#
0G#
0H#
0I#
0J#
0K#
0L#
0M#
0N#
0O#
0P#
0Q#
0R#
0S#
0T#
0U#
0V#
0W#
0X#
0Y#
0Z#
0[#
0\#
0]#
0^#
0_#
0`#
0a#
0b#
0c#
0d#
0e#
0f#
0n#
0m#
0l#
0k#
0j#
0i#
0h#
0g#
0($
0'$
0&$
0%$
0$$
0#$
0"$
0!$
0~#
0}#
0|#
0{#
0z#
0y#
0x#
0w#
0v#
0u#
0t#
0s#
0r#
0q#
0p#
0o#
0,$
0+$
0*$
z)$
06$
05$
04$
03$
02$
01$
00$
0/$
0.$
0-$
0>$
0=$
z<$
z;$
0:$
09$
z8$
z7$
0B$
0A$
0@$
z?$
0J$
0I$
0H$
0G$
0F$
0E$
0D$
0C$
0N$
0M$
0L$
zK$
0R$
0Q$
0P$
zO$
0V$
0U$
0T$
zS$
0Z$
0Y$
0X$
zW$
zr$
zq$
zp$
zo$
zn$
zm$
zl$
zk$
zj$
zi$
0h$
0g$
zf$
ze$
zd$
zc$
zb$
za$
z`$
z_$
z^$
z]$
z\$
z[$
0v$
0u$
zt$
zs$
0z$
0y$
0x$
zw$
0$%
z#%
z"%
z!%
z~$
z}$
z|$
z{$
$end
#5000
1!
1T
1U
16$
1[
0V
1\
#10000
0!
0T
0U
#15000
1!
1T
1U
15$
06$
0]
0[
0\
1V
1]
1^
1\
0^
#20000
0!
0T
0U
#25000
1!
1T
1U
16$
1[
0V
0]
0\
1^
#30000
0!
0T
0U
#35000
1!
1T
1U
14$
05$
06$
1_
1]
0[
0^
1\
1V
0_
1`
1^
0\
0`
#40000
0!
0T
0U
#45000
1!
1T
1U
16$
1[
0V
1\
#50000
0!
0T
0U
#55000
1!
1T
1U
15$
06$
0]
0[
0\
1V
1_
1]
0^
1\
0_
1`
1^
0`
#60000
0!
0T
0U
#65000
1!
1T
1U
16$
1[
0V
0]
0\
1_
0^
1`
#70000
0!
0T
0U
#75000
1!
1T
1U
13$
04$
05$
06$
0a
0_
1]
0[
0`
1^
1\
1V
1a
1b
1`
0^
0\
0b
#80000
0!
0T
0U
#85000
1!
1T
1U
16$
1[
0V
1\
#90000
0!
0T
0U
#95000
1!
1T
1U
15$
06$
0]
0[
0\
1V
1]
1^
1\
0^
#100000
0!
0T
0U
#105000
1!
1T
1U
16$
1[
0V
0]
0\
1^
#110000
0!
0T
0U
#115000
1!
1T
1U
14$
05$
06$
1_
1]
0[
0^
1\
1V
0a
0_
0`
1^
0\
1a
1b
1`
0b
#120000
0!
0T
0U
#125000
1!
1T
1U
16$
1[
0V
1\
#130000
0!
0T
0U
#135000
1!
1T
1U
15$
06$
0]
0X
0[
0\
1V
1_
1m
1Z
1]
0^
1\
0a
0_
0`
1n
1^
1a
1b
1`
0b
#140000
0!
0T
0U
#145000
1!
1T
1U
1o
03$
04$
05$
1p
0m
1X
0`
0^
0\
1m
0Z
0n
1n
1n"
1f"
0##
1|"
0o"
07#
0-#
0l"
1;"
0@!
1%!
1"!
1g"
1$!
0$#
1{"
02#
01!
1s"
0m"
0%#
13#
#150000
0!
0T
0U
#155000
1!
1T
1U
16$
1[
0V
1\
#160000
0!
0T
0U
#165000
1!
1T
1U
15$
06$
0]
0[
0\
1V
1]
1^
1\
0^
#170000
0!
0T
0U
#175000
1!
1T
1U
16$
1[
0V
0]
0\
1^
#180000
0!
0T
0U
#185000
1!
1T
1U
14$
05$
06$
1_
1]
0[
0^
1\
1V
0_
1`
1^
0\
0`
#190000
0!
0T
0U
#195000
1!
1T
1U
16$
1[
0V
1\
#200000
0!
0T
0U
#205000
1!
1T
1U
15$
06$
0]
0[
0\
1V
1_
1]
0^
1\
0_
1`
1^
0`
#210000
0!
0T
0U
#215000
1!
1T
1U
16$
1[
0V
0]
0\
1_
0^
1`
#220000
0!
0T
0U
#225000
1!
1T
1U
13$
04$
05$
06$
0a
0_
1]
0[
0`
1^
1\
1V
1a
1b
1`
0^
0\
0b
#230000
0!
0T
0U
#235000
1!
1T
1U
16$
1[
0V
1\
#240000
0!
0T
0U
#245000
1!
1T
1U
15$
06$
0]
0[
0\
1V
1]
1^
1\
0^
#250000
0!
0T
0U
#255000
1!
1T
1U
16$
1[
0V
0]
0\
1^
#260000
0!
0T
0U
#265000
1!
1T
1U
14$
05$
06$
1_
1]
0[
0^
1\
1V
0a
0_
0`
1^
0\
1a
1b
1`
0b
#270000
0!
0T
0U
#275000
1!
1T
1U
16$
1[
0V
1\
#280000
0!
0T
0U
#285000
1!
1T
1U
15$
06$
0]
0X
0[
0\
1V
1_
0m
1Z
1]
0^
1\
0a
0_
0`
0n
1^
1a
1b
1`
0b
#290000
0!
0T
0U
